----------------------------------------------------------------
Fri May 04 18:10:42 IST 2018:
Booting Derby version The Apache Software Foundation - Apache Derby - 10.14.1.0 - (1808820): instance a816c00e-0163-2b2b-34ed-000011a11dc0 
on database directory memory:/home/rohit/Documents/Code/Eclipse/BootYoutube/testdb with class loader org.springframework.boot.loader.LaunchedURLClassLoader@377dca04 
Loaded from jar:file:/home/rohit/Documents/Code/Eclipse/BootYoutube/target/BootYoutube-0.0.1-SNAPSHOT.jar!/BOOT-INF/lib/derby-10.14.1.0.jar!/
java.vendor=Oracle Corporation
java.runtime.version=1.8.0_162-8u162-b12-0ubuntu0.16.04.2-b12
user.dir=/home/rohit/Documents/Code/Eclipse/BootYoutube
os.name=Linux
os.arch=amd64
os.version=4.13.0-39-generic
derby.system.home=null
Database Class Loader started - derby.database.classpath=''
